<?xml version="1.0" encoding="UTF-8" standalone="no"?>
<svg
   xmlns:dc="http://purl.org/dc/elements/1.1/"
   xmlns:cc="http://creativecommons.org/ns#"
   xmlns:rdf="http://www.w3.org/1999/02/22-rdf-syntax-ns#"
   xmlns:svg="http://www.w3.org/2000/svg"
   xmlns="http://www.w3.org/2000/svg"
   xmlns:sodipodi="http://sodipodi.sourceforge.net/DTD/sodipodi-0.dtd"
   xmlns:inkscape="http://www.inkscape.org/namespaces/inkscape"
   width="300"
   height="37"
   id="svg2928"
   viewBox="0 0 300 37"
   sodipodi:version="0.32"
   inkscape:version="1.0beta1 (459877fba3, 2019-11-14)"
   sodipodi:docname="basic-f04.svg"
   version="1.1">
  <defs
     id="defs3" />
  <sodipodi:namedview
     inkscape:window-maximized="0"
     inkscape:window-y="27"
     inkscape:window-x="54"
     inkscape:window-height="1053"
     inkscape:window-width="1866"
     inkscape:guide-bbox="true"
     showguides="true"
     units="px"
     showgrid="false"
     inkscape:document-rotation="0"
     inkscape:current-layer="layer1"
     inkscape:document-units="px"
     inkscape:cy="84.125048"
     inkscape:cx="253.85334"
     inkscape:zoom="1.4"
     inkscape:pageshadow="2"
     inkscape:pageopacity="0.0"
     borderopacity="1.0"
     bordercolor="#666666"
     pagecolor="#ffffff"
     id="base"
     inkscape:lockguides="true" />
  <metadata
     id="metadata4">
    <rdf:RDF>
      <cc:Work
         rdf:about="">
        <dc:format>image/svg+xml</dc:format>
        <dc:type
           rdf:resource="http://purl.org/dc/dcmitype/StillImage" />
        <dc:title />
      </cc:Work>
    </rdf:RDF>
  </metadata>
  <g
     inkscape:label="Layer 1"
     inkscape:groupmode="layer"
     id="layer1">
    <rect
       style="font-size:12px;fill:#0000ff;fill-opacity:0.75;fill-rule:evenodd;stroke:#000000;stroke-width:0.801063pt"
       id="rect878"
       width="25.2533"
       height="26.65626"
       x="84.629509"
       y="6.0477896" />
    <path
       style="font-size:12px;fill:#ff0000;fill-opacity:0.75;fill-rule:evenodd;stroke:#000000;stroke-width:0.801064pt"
       d="m 166.54137,18.91529 c 0,7.877583 -7.85164,14.263585 -17.53712,14.263585 -9.68548,0 -17.53712,-6.386002 -17.53712,-14.263585 0,-7.877503 7.85164,-14.2635055 17.53712,-14.2635055 9.68548,0 17.53712,6.3860025 17.53712,14.2635055 z"
       id="path879"
       inkscape:connector-curvature="0" />
    <path
       style="color:#000000;font-family:'Liberation Sans',Arial,sans-serif;display:inline;overflow:visible;visibility:visible;fill:#ffff00;fill-opacity:0.75;fill-rule:evenodd;stroke:#000000;stroke-width:0.801064pt;stroke-linecap:butt;stroke-linejoin:miter;stroke-miterlimit:4;stroke-dashoffset:0;stroke-opacity:1;marker:none"
       d="m 213.42314,29.944947 -11.50928,-2.809744 -8.83938,7.888185 -0.88434,-11.814237 -10.23364,-5.969174 10.96273,-4.491855 2.51466,-11.5773363 7.65968,9.0381163 11.78777,-1.1860134 -6.22879,10.0777194 z"
       id="path1290"
       inkscape:connector-curvature="0" />
  </g>
</svg>
