<?xml version="1.0" encoding="UTF-8" standalone="no"?>
<svg
   xmlns:dc="http://purl.org/dc/elements/1.1/"
   xmlns:cc="http://creativecommons.org/ns#"
   xmlns:rdf="http://www.w3.org/1999/02/22-rdf-syntax-ns#"
   xmlns:svg="http://www.w3.org/2000/svg"
   xmlns="http://www.w3.org/2000/svg"
   xmlns:sodipodi="http://sodipodi.sourceforge.net/DTD/sodipodi-0.dtd"
   xmlns:inkscape="http://www.inkscape.org/namespaces/inkscape"
   sodipodi:docname="basic-f10.svg"
   inkscape:version="1.0beta1 (459877fba3, 2019-11-14)"
   sodipodi:version="0.32"
   id="svg2928"
   viewBox="0 0 300 43"
   height="43"
   width="300"
   version="1.1">
  <defs
     id="defs3" />
  <sodipodi:namedview
     inkscape:window-maximized="0"
     inkscape:window-y="27"
     inkscape:window-x="54"
     inkscape:window-height="1053"
     inkscape:window-width="1866"
     inkscape:guide-bbox="true"
     showguides="true"
     units="px"
     showgrid="false"
     inkscape:document-rotation="0"
     inkscape:current-layer="layer1"
     inkscape:document-units="px"
     inkscape:cy="105.32248"
     inkscape:cx="341.68971"
     inkscape:zoom="1.4"
     inkscape:pageshadow="2"
     inkscape:pageopacity="0.0"
     borderopacity="1.0"
     bordercolor="#666666"
     pagecolor="#ffffff"
     id="base"
     inkscape:lockguides="true" />
  <metadata
     id="metadata4">
    <rdf:RDF>
      <cc:Work
         rdf:about="">
        <dc:format>image/svg+xml</dc:format>
        <dc:type
           rdf:resource="http://purl.org/dc/dcmitype/StillImage" />
        <dc:title />
      </cc:Work>
    </rdf:RDF>
  </metadata>
  <g
     id="layer1"
     inkscape:groupmode="layer"
     inkscape:label="Layer 1">
    <path
       style="font-size:12px;fill:#dbdbdb;fill-opacity:1;fill-rule:evenodd;stroke:#000000;stroke-width:0.0115918;stroke-opacity:1"
       d="m 76.99465,21.727924 c 0,9.119315 -12.276367,16.512009 -27.420034,16.512009 -15.143666,0 -27.420034,-7.392694 -27.420034,-16.512009 0,-9.119316 12.276368,-16.5120094 27.420034,-16.5120094 15.143667,0 27.420034,7.3926934 27.420034,16.5120094 z"
       id="path1033"
       inkscape:connector-curvature="0" />
    <path
       style="font-size:12px;fill:#dbdbdb;fill-opacity:1;fill-rule:evenodd;stroke:#000000;stroke-width:2.31836;stroke-opacity:1"
       d="m 103.28162,21.727924 c 0,9.119315 -12.276367,16.512009 -27.420034,16.512009 -15.143666,0 -27.420034,-7.392694 -27.420034,-16.512009 0,-9.119316 12.276368,-16.5120094 27.420034,-16.5120094 15.143667,0 27.420034,7.3926934 27.420034,16.5120094 z"
       id="path1034"
       inkscape:connector-curvature="0" />
    <path
       style="font-size:12px;fill:#dbdbdb;fill-opacity:1;fill-rule:evenodd;stroke:#000000;stroke-width:9.27344;stroke-opacity:1"
       d="m 136.1404,21.727924 c 0,9.119315 -12.27637,16.512009 -27.42003,16.512009 -15.14367,0 -27.420038,-7.392694 -27.420038,-16.512009 0,-9.119316 12.276368,-16.5120094 27.420038,-16.5120094 15.14366,0 27.42003,7.3926934 27.42003,16.5120094 z"
       id="path1035"
       inkscape:connector-curvature="0" />
    <path
       style="font-size:12px;fill:#dbdbdb;fill-opacity:1;fill-rule:evenodd;stroke:#000000;stroke-width:1.73877;stroke-dasharray:1.73877, 3.47754;stroke-dashoffset:0;stroke-opacity:1"
       d="m 168.99876,21.727924 c 0,9.119315 -12.27637,16.512009 -27.42003,16.512009 -15.14367,0 -27.42004,-7.392694 -27.42004,-16.512009 0,-9.119316 12.27637,-16.5120094 27.42004,-16.5120094 15.14366,0 27.42003,7.3926934 27.42003,16.5120094 z"
       id="path1036"
       inkscape:connector-curvature="0" />
    <path
       style="font-size:12px;fill:#dbdbdb;fill-opacity:1;fill-rule:evenodd;stroke:#000000;stroke-width:1.73877;stroke-dasharray:6.95506, 6.95506;stroke-dashoffset:0;stroke-opacity:1"
       d="m 205.14386,21.727924 c 0,9.119315 -12.27637,16.512009 -27.42003,16.512009 -15.14367,0 -27.42004,-7.392694 -27.42004,-16.512009 0,-9.119316 12.27637,-16.5120094 27.42004,-16.5120094 15.14366,0 27.42003,7.3926934 27.42003,16.5120094 z"
       id="path1037"
       inkscape:connector-curvature="0" />
    <path
       style="font-size:12px;fill:#dbdbdb;fill-opacity:1;fill-rule:evenodd;stroke:#000000;stroke-width:1.73877;stroke-dasharray:6.95506, 3.47753, 1.73877, 3.47753;stroke-dashoffset:0;stroke-opacity:1"
       d="m 241.28816,21.727924 c 0,9.119315 -12.27637,16.512009 -27.42003,16.512009 -15.14367,0 -27.42004,-7.392694 -27.42004,-16.512009 0,-9.119316 12.27637,-16.5120094 27.42004,-16.5120094 15.14366,0 27.42003,7.3926934 27.42003,16.5120094 z"
       id="path1038"
       inkscape:connector-curvature="0" />
    <path
       style="font-size:12px;fill:#dbdbdb;fill-opacity:1;fill-rule:evenodd;stroke:#000000;stroke-width:0.811426;stroke-dasharray:0.811426, 0.811426;stroke-dashoffset:0;stroke-opacity:1"
       d="m 277.43246,21.727924 c 0,9.119315 -12.27637,16.512009 -27.42003,16.512009 -15.14367,0 -27.42004,-7.392694 -27.42004,-16.512009 0,-9.119316 12.27637,-16.5120094 27.42004,-16.5120094 15.14366,0 27.42003,7.3926934 27.42003,16.5120094 z"
       id="path1039"
       inkscape:connector-curvature="0" />
  </g>
</svg>
